<svg width="24" height="24" viewBox="0 0 24 24" fill="none" xmlns="http://www.w3.org/2000/svg">
<g id="A-18">
<path id="Union" fill-rule="evenodd" clip-rule="evenodd" d="M10.75 12.7969V21.0469H12.25V12.7969H20.5V11.2969H12.25V3.04688H10.75V11.2969H2.5V12.7969H10.75Z" fill="#333333"/>
</g>
</svg>
